# PROJECT BLUEPRINT - CURRENT IMPLEMENTATION

## 1. PROJECT OVERVIEW

This project is a Go-based boilerplate application with modular architecture. The system is designed for extensibility, security, and production readiness.

### Key Characteristics:
- **Language**: Go (Golang)
- **Framework**: Gin for HTTP services
- **Architecture**: Modular, service-oriented
- **UI**: Terminal User Interface (TUI) using Bubble Tea
- **Security**: Comprehensive error handling

## 2. ARCHITECTURE & DESIGN

### 2.1 System Architecture

The project follows a clean, layered architecture with clear separation of concerns:

```
Client → Handler → Request Binding → Validation → Business Logic → Response
```

### 2.2 Package Organization

- **cmd/**: Application entry points
  - **app/**: Main application with clean code structure
    - **main.go**: Simplified entry point
    - **constants.go**: Centralized constants and type definitions
    - **config_manager.go**: Configuration loading and validation
    - **application.go**: Application orchestration and lifecycle management
    - **embed/**: Embedded application assets
      - **config.yaml**: Default configuration
      - **banner.txt**: Application banner
- **config/**: Configuration management
- **internal/**: Core application logic (private)
  - **middleware/**: HTTP middleware
  - **server/**: HTTP server setup
  - **services/**: Business services
  - **modules/**: Individual service implementations
- **pkg/**: Reusable packages (public)
  - **request/**: Request handling and validation
  - **logger/**: Modular logging utilities with separated configuration
  - **response/**: Standardized API responses
  - **tui/**: Terminal User Interface
  - **infrastructure/**: External service integrations
  - **utils/**: Utility functions
    - **parameter.go**: Customizable parameter parsing system for command-line flags

### 2.3 Request/Response Flow

1. **Client Request** → HTTP Handler
2. **Handler** → request.Bind (parse JSON)
3. **Bind** → request.Validate (input validation)
4. **Validate** → Business Logic (success) or Error (failure)
5. **Logic** → response.Success or response.Error
6. **Response** → JSON Response to Client

### 2.4 Application Execution

The application follows a structured step-by-step execution pattern:

**Execution Flow:**
1. **Configuration Loading** → Load and validate application configuration
2. **Banner Display** → Show application banner and version
3. **Port Validation** → Check service and monitoring port availability
4. **Logger Initialization** → Initialize modular logging system
5. **Infrastructure Setup** → Initialize async infrastructure components
6. **Service Registration** → Register and initialize enabled services
7. **Server Startup** → Start HTTP servers and begin serving requests

**Key Features:**
- **Modular Steps**: Each initialization phase is a separate, testable function
- **Error Handling**: Graceful failure with detailed error messages at each step
- **Progress Feedback**: Clear step-by-step progress indication
- **Configuration-Driven**: All steps respect configuration settings (TUI enable/disable)
- **Graceful Shutdown**: Proper cleanup of all resources on termination

## 3. API STRUCTURE

### 3.1 Standardized Response Format

All API responses follow a consistent structure:

```json
{
  "success": true/false,
  "message": "Optional message",
  "data": {},
  "error": {
    "code": "ERROR_CODE",
    "message": "Error message",
    "details": {}
  },
  "meta": {
    "page": 1,
    "per_page": 10,
    "total": 100,
    "total_pages": 10
  },
  "timestamp": 1672531200
}
```

### 3.2 Response Helper Functions

**Success Responses:**
- `response.Success(c, data, message)` - 200 OK
- `response.SuccessWithMeta(c, data, meta, message)` - 200 OK with metadata
- `response.Created(c, data, message)` - 201 Created
- `response.NoContent(c)` - 204 No Content

**Error Responses:**
- `response.BadRequest(c, message, details)` - 400
- `response.Unauthorized(c, message)` - 401
- `response.Forbidden(c, message)` - 403
- `response.NotFound(c, message)` - 404
- `response.Conflict(c, message, details)` - 409
- `response.ValidationError(c, message, details)` - 422
- `response.InternalServerError(c, message)` - 500
- `response.ServiceUnavailable(c, message)` - 503
- `response.Error(c, statusCode, errorCode, message, details)` - Custom

## 4. SERVICE ARCHITECTURE

### 4.1 Service Interface

All services implement the `Service` interface:

```go
type Service interface {
    Name() string                          // Display name
    RegisterRoutes(g *gin.RouterGroup)     // Register HTTP routes
    Enabled() bool                         // Service active status
    Endpoints() []string                   // List of endpoints
}
```

### 4.2 Service Registration

Services are registered using an automatic discovery system with factory functions:

#### Service Factory Pattern

Each service module uses an `init()` function to register itself with the global registry:

```go
func init() {
    registry.RegisterService("service_name", func(config *config.Config, logger *logger.Logger, deps *registry.Dependencies) interfaces.Service {
        helper := registry.NewServiceHelper(config, logger, deps)
        
        if !helper.IsServiceEnabled("service_name") {
            return nil
        }
        
        return NewServiceName(true, logger)
    })
}
```

#### Service Registration Flow

1. **Module Import**: `internal/services/register.go` imports all service modules
2. **Service Registration**: Each module's `init()` function registers a factory
3. **Auto-Discovery**: `registry.AutoDiscoverServices()` creates enabled services
4. **Dependency Injection**: Services check for required dependencies before creation

## 5. APPLICATION LOGGING

### 5.1 Console Logging

The application uses standard console logging with structured output. All startup sequence, service initialization, and runtime events are logged to stdout.

**Key Features:**
- Structured logging format
- Color-coded output for different log levels
- Timestamp with millisecond precision
- Component identification in log entries
- Graceful error reporting with full stack traces

### 5.2 Log Levels

- **DEBUG**: Detailed debugging information
- **INFO**: Normal operational events
- **WARN**: Non-critical warning conditions
- **ERROR**: Error conditions requiring attention
- **FATAL**: Fatal errors causing application termination

## 6. INFRASTRUCTURE SYSTEM

### 6.1 Overview

The application implements a component registry system for managing infrastructure components.

### 6.2 Infrastructure Component Registry

The application uses a dynamic infrastructure component registry that provides a unified interface for managing all infrastructure components.

**Core Interface:**
```go
type InfrastructureComponent interface {
    Name() string
    Close() error
    GetStatus() map[string]interface{}
}
```

**Component Registry:**
```go
type ComponentRegistry struct {
    components map[string]InfrastructureComponent
    factories  map[string]ComponentFactory
    mu         sync.RWMutex
}
```

**Auto-Registration Pattern:**
Each infrastructure manager registers itself via `init()` function:
```go
func init() {
    RegisterComponent("cron", func(cfg *config.Config, log *logger.Logger) (InfrastructureComponent, error) {
        if !cfg.Cron.Enabled {
            return nil, nil
        }
        return NewCronClient(cfg.Cron)
    })
}
```

**Supported Components:**
- `cron` - Cron job scheduler manager
- `system` - System monitoring manager

### 6.3 Service Helper Pattern

The application provides a `ServiceHelper` utility that simplifies dependency resolution for services.

**Service Helper:**
```go
type ServiceHelper struct {
    config *config.Config
    logger *logger.Logger
    deps   *Dependencies
}

func NewServiceHelper(config *config.Config, logger *logger.Logger, deps *Dependencies) *ServiceHelper
```

**Type-Safe Dependency Getters:**
All infrastructure dependencies are retrieved using generic `GetTyped[T]()` registry function with explicit casting:

```go
// Generic infrastructure access pattern
func GetTyped[T any](deps *Dependencies, name string) (T, bool)
```

## 7. CORE UTILITIES

### 7.1 Generic Stepping Utility

**Purpose:** Provides a reusable, generic stepping pattern for step-by-step initialization across the entire application.

**Location:** `pkg/utils/stepper.go`

**Key Features:**
- **Generic Design**: Works with any context type through `StepContext` interface
- **Type Safety**: Provides type-safe wrapper functions for specific use cases
- **Consistent Logging**: Uniform progress tracking and error handling
- **Reusable Pattern**: Can be used by any component requiring step-by-step initialization
- **Error Handling**: Each step can fail independently with clear error messages

### 7.2 Global Singleton Afero Manager

**Purpose:** Provides a unified, thread-safe interface for filesystem operations with support for embedded files and aliasing.

**Implementation Status:** Fully implemented and active

**Key Features:**
- **Singleton Pattern**: Thread-safe singleton using `sync.Once`
- **Hybrid Filesystem**: Development mode uses `CopyOnWriteFs`, production uses `ReadOnlyFs`
- **File Aliasing**: Map aliases to physical paths
- **Embed.FS Integration**: Seamless integration with Go's `//go:embed` directive
- **Thread Safety**: Read operations protected with `sync.RWMutex`

**Initialization Sequence:**
Afero Manager is initialized FIRST before any other components during application startup.

## 8. CLEAN CODE PRINCIPLES

### 8.1 Application Structure

The application follows clean code principles with clear separation of concerns:

1. **Single Responsibility Principle** - Each component has one clear purpose
2. **Dependency Injection** - All dependencies injected through constructors
3. **Separation of Concerns** - Configuration, application logic, and entry point separated
4. **Consistent Error Handling** - Proper error propagation throughout
5. **Type Safety** - Strong typing with custom types and constants
6. **Testability** - Each component can be unit tested independently
7. **Maintainability** - Clear structure makes code easy to understand and modify

### 8.2 File Organization

**cmd/app/**: Clean application structure
- **main.go**: Simplified entry point - creates application and runs it
- **constants.go**: Centralized constants and type definitions
- **config_manager.go**: Configuration loading and validation
- **application.go**: Application orchestration and lifecycle management

**Key Benefits:**
- **Main Function**: Single responsibility - create application and run it
- **Configuration**: Centralized in ConfigManager with validation
- **Application Logic**: Encapsulated in Application struct
- **Constants**: All magic numbers and strings centralized
- **Types**: Clear type definitions for better type safety

## 9. DOCUMENTATION STRUCTURE

```
docs_wiki/
└── blueprint/
    └── blueprint.txt           # Internal technical blueprint (this file)
```

## 10. PROJECT STRUCTURE

```
stackyrd-nano/
├── .gitignore                  # Git ignore file
├── go.mod                      # Go module definition
├── go.sum                      # Go module checksums
├── LICENSE                     # Apache License 2.0
├── README.md                   # Project documentation
├── cmd/
│   └── app/                    # Clean application structure
│       ├── main.go             # Simplified entry point
│       ├── constants.go        # Centralized constants and types
│       ├── config_manager.go   # Configuration loading and validation
│       ├── application.go      # Application orchestration and lifecycle
│       └── embed/              # Embedded assets
│           ├── config.yaml     # Default configuration
│           └── banner.txt      # Application banner
├── config/
│   └── config.go               # Configuration management
├── docs_wiki/                  # Project documentation
│   └── blueprint/              # Internal blueprint files
│       └── blueprint.txt       # This blueprint
├── internal/                   # Core application logic (private)
│   ├── middleware/             # HTTP middleware
│   ├── server/                 # HTTP server
│   │   └── server.go           # Main server implementation
│   └── services/               # Business services
│       ├── modules/            # Service implementations
│       └── services.go         # Service interface
├── pkg/                        # Reusable packages (public)
│   ├── infrastructure/         # External integrations
│   │   ├── afero.go            # Global Singleton Afero Manager
│   │   ├── component.go        # Infrastructure component interface
│   │   ├── cron_manager.go     # Cron job management
│   │   └── registry.go         # Component registry
│   ├── interfaces/             # Interface definitions
│   │   └── service.go          # Service interface
│   ├── logger/                 # Logging utilities
│   │   └── logger.go           # Logger implementation
│   ├── registry/               # Service registry
│   │   ├── dependencies.go     # Dependency injection
│   │   ├── registry.go         # Service registration
│   │   └── service_helper.go   # Service dependency helper
│   ├── request/                # Request handling
│   │   └── request.go          # Request validation and binding
│   ├── response/               # Standardized API responses
│   │   └── response.go         # Response helpers
│   ├── tui/                    # Terminal User Interface
│   │   ├── boot.go             # Boot sequence TUI
│   │   ├── charts.go           # ASCII chart utilities
│   │   ├── dashboard.go        # Dashboard TUI
│   │   ├── live.go             # Live logs TUI
│   │   ├── simple.go           # Simple TUI
│   │   ├── startup.go          # Startup TUI
│   │   ├── styles.go           # TUI styling
│   │   └── template/           # TUI templates
│   │       └── dialog.go       # Dialog components
│   └── utils/                  # Utility functions
│       ├── broadcast.go        # Event broadcasting
│       ├── date.go             # Date utilities
│       ├── io.go               # I/O utilities
│       ├── numeric.go          # Numeric utilities
│       ├── parameter.go        # Parameter parsing
│       ├── strings.go          # String utilities
│       └── system.go           # System utilities
├── scripts/                    # Build and utility scripts
└── tests/                      # Test suite
    └── infrastructure/         # Infrastructure tests
        ├── afero_test.go       # Afero Manager tests
        └── testdata/           # Test data
    └── services/               # Service tests
```

## 11. KEY FEATURES SUMMARY

### 11.1 Core Features

- **Clean Code Architecture**: Single responsibility, dependency injection, separation of concerns
- **Modular Architecture**: Services can be enabled/disabled via config
- **Standardized API**: Consistent request/response structure
- **Terminal UI**: Interactive boot sequence and dashboard
- **Global Singleton Afero Manager**: Thread-safe filesystem operations with embed.FS support
- **Customizable Parameter Parsing**: Dynamic flag system for command-line configuration
- **Infrastructure Component Registry**: Unified interface for managing external services

### 11.2 Technical Highlights

- **Gin Framework**: High-performance HTTP server
- **Bubble Tea**: Modern TUI framework
- **Clean Architecture**: Separation of concerns with clean code principles
- **Dependency Injection**: For service components
- **Configuration Management**: YAML-based with defaults

### 11.3 Production Readiness

- **Comprehensive Logging**: Structured logging with context
- **Graceful Shutdown**: Proper resource cleanup
- **Configuration Validation**: At startup
- **Clean Code**: Maintainable, testable, and extensible codebase

## 12. GETTING STARTED

### 12.1 Setup

1. **Install Dependencies**:
```bash
go mod tidy
```

2. **Configure Services** in `cmd/app/embed/config.yaml`:

3. **Run Application**:
```bash
go run cmd/app/main.go
```

## 13. LICENSING

### 13.1 License Information

This project is licensed under the **Apache License 2.0**, a permissive open-source license.

### 13.2 Copyright Notice

```
Copyright 2025 diameter-tscd

Licensed under the Apache License, Version 2.0 (the "License");
you may not use this file except in compliance with the License.
You may obtain a copy of the License at

    http://www.apache.org/licenses/LICENSE-2.0

Unless required by applicable law or agreed to in writing, software
distributed under the License is distributed on an "AS IS" BASIS,
WITHOUT WARRANTIES OR CONDITIONS OF ANY KIND, either express or implied.
See the License for the specific language governing permissions and
limitations under the License.